Predicciones de precio de venta de casas con datos trail y test
…
# Ver el diccionario de datos ???

# Conjunto 
entrenaNumericas <- select(entrena, nombresColumnas)
entrenaNumericas

## # A tibble: 1,460 x 38
##       Id MSSubClass LotFrontage LotArea OverallQual OverallCond YearBuilt
##    <dbl>      <dbl>       <dbl>   <dbl>       <dbl>       <dbl>     <dbl>
##  1     1         60          65    8450           7           5      2003
##  2     2         20          80    9600           6           8      1976
##  3     3         60          68   11250           7           5      2001
##  4     4         70          60    9550           7           5      1915
##  5     5         60          84   14260           8           5      2000
##  6     6         50          85   14115           5           5      1993
##  7     7         20          75   10084           8           5      2004
##  8     8         60          NA   10382           7           6      1973
##  9     9         50          51    6120           7           5      1931
## 10    10        190          50    7420           5           6      1939
## # … with 1,450 more rows, and 31 more variables: YearRemodAdd <dbl>,
## #   MasVnrArea <dbl>, BsmtFinSF1 <dbl>, BsmtFinSF2 <dbl>, BsmtUnfSF <dbl>,
## #   TotalBsmtSF <dbl>, `1stFlrSF` <dbl>, `2ndFlrSF` <dbl>, LowQualFinSF <dbl>,
## #   GrLivArea <dbl>, BsmtFullBath <dbl>, BsmtHalfBath <dbl>, FullBath <dbl>,
## #   HalfBath <dbl>, BedroomAbvGr <dbl>, KitchenAbvGr <dbl>, TotRmsAbvGrd <dbl>,
## #   Fireplaces <dbl>, GarageYrBlt <dbl>, GarageCars <dbl>, GarageArea <dbl>,
## #   WoodDeckSF <dbl>, OpenPorchSF <dbl>, EnclosedPorch <dbl>,
## #   `3SsnPorch` <dbl>, ScreenPorch <dbl>, PoolArea <dbl>, MiscVal <dbl>,
## #   MoSold <dbl>, YrSold <dbl>, SalePrice <dbl>
…
